{
  "builders": [
    {
      "type": "virtualbox-iso",
      "vboxmanage": [
        [
          "modifyvm",
          "{{.Name}}",
          "--vram",
          "48"
        ],
        [
          "modifyvm",
          "{{.Name}}",
          "--audio",
          "none"
        ]
      ],
      "memory": "{{ user `memory` }}",
      "cpus": "{{ user `cpus` }}",
      "guest_additions_mode": "{{ user `guest_additions_mode` }}",
      "guest_additions_url": "{{ user `guest_additions_url` }}",
      "guest_additions_path": "C:/users/vagrant/VBoxGuestAdditions.iso",
      "guest_os_type": "Windows2016_64",
      "hard_drive_interface": "sata",
      "iso_interface": "sata",
      "headless": "{{ user `headless` }}",
      "iso_url": "{{ user `iso_url` }}",
      "iso_checksum": "{{ user `iso_checksum` }}",
      "iso_checksum_type": "sha1",
      "output_directory": "{{ user `build_directory` }}/packer-{{user `template`}}-virtualbox",
      "communicator": "winrm",
      "winrm_username": "vagrant",
      "winrm_password": "vagrant",
      "winrm_timeout": "12h",
      "shutdown_command": "shutdown /s /t 10 /f /d p:4:1 /c \"Packer Shutdown\"",
      "shutdown_timeout": "15m",
      "floppy_files": [
        "{{ user `floppy_dir` }}/{{ user `unattended_file_path` }}"
      ]
    },
    {
      "type": "vmware-iso",
      "version": 11,
      "memory": "{{ user `memory` }}",
      "cpus": "{{ user `cpus` }}",
      "disk_adapter_type": "lsisas1068",
      "guest_os_type": "windows9srv-64",
      "headless": "{{ user `headless` }}",
      "iso_url": "{{ user `iso_url` }}",
      "iso_checksum": "{{ user `iso_checksum` }}",
      "iso_checksum_type": "sha1",
      "output_directory": "{{ user `build_directory` }}/packer-{{user `template`}}-vmware",
      "communicator": "winrm",
      "winrm_username": "vagrant",
      "winrm_password": "vagrant",
      "winrm_timeout": "12h",
      "shutdown_command": "shutdown /s /t 10 /f /d p:4:1 /c \"Packer Shutdown\"",
      "shutdown_timeout": "15m",
      "floppy_files": [
        "{{ user `floppy_dir` }}/{{ user `unattended_file_path` }}"
      ]
    },
    {
      "type": "vsphere-iso",
      "vcenter_server": "{{user `vcenter`}}",
      "username": "{{user `vcenter_username`}}",
      "password": "{{user `vcenter_password`}}",
      "insecure_connection": true,
      "datacenter": "{{user `vcenter_datacenter`}}",
      "datastore": "{{user `vcenter_datastore`}}",
      "vm_name": "server2019_packer_ci",
      "folder": "packer",
      "cluster": "{{user `vcenter_cluster`}}",
      "CPUs": 4,
      "RAM": 4096,
      "RAM_reserve_all": false,
      "disk_controller_type": "pvscsi",
      "guest_os_type": "windows9srv-64",
      "iso_paths": [
        "[ISOs20] server_2019.iso"
      ],
      "communicator": "winrm",
      "winrm_username": "vagrant",
      "winrm_password": "vagrant",
      "winrm_timeout": "12h",
      "network_card": "vmxnet3",
      "network": "{{user `vcenter_network`}}",
      "shutdown_command": "shutdown /s /t 10 /f /d p:4:1 /c \"Packer Shutdown\"",
      "shutdown_timeout": "15m",
      "floppy_files": [
        "{{ user `floppy_dir` }}/{{ user `unattended_file_path` }}"
      ],
      "convert_to_template": true
    }
  ],
  "provisioners": [
    {
      "type": "chef-solo",
      "cookbook_paths": [
        "{{template_dir}}/cookbooks"
      ],
      "guest_os_type": "windows",
      "run_list": [
        "packer::disable_uac",
        "packer::disable_restore",
        "packer::disable_windows_update",
        "packer::remove_defender",
        "packer::configure_power",
        "packer::disable_screensaver"
      ]
    },
    {
      "type": "windows-restart"
    },
    {
      "type": "chef-solo",
      "cookbook_paths": [
        "{{template_dir}}/cookbooks"
      ],
      "guest_os_type": "windows",
      "run_list": [
        "packer::vm_tools",
        "packer::features",
        "packer::enable_file_sharing",
        "packer::enable_remote_desktop",
        "packer::ui_tweaks"
      ]
    },
    {
      "type": "windows-restart"
    },
    {
      "type": "chef-solo",
      "cookbook_paths": [
        "{{template_dir}}/cookbooks"
      ],
      "guest_os_type": "windows",
      "run_list": [
        "packer::cleanup",
        "packer::defrag"
      ]
    },
    {
      "type": "powershell",
      "script": "{{template_dir}}/scripts/cleanup.ps1",
      "elevated_user": "vagrant",
      "elevated_password": "vagrant"
    }
  ],
  "post-processors": [
    [
      {
        "type": "vagrant",
        "keep_input_artifact": true,
        "output": "{{ user `template` }}-{{.Provider}}.box",
        "vagrantfile_template": "{{template_dir}}/vagrantfile-windows.template"
      }
    ]
  ],
  "variables": {
    "build_directory": "../../builds",
    "cpus": "2",
    "floppy_dir": "{{template_dir}}/answer_files",
    "guest_additions_mode": "attach",
    "guest_additions_url": "",
    "headless": "true",
    "iso_checksum": "3022424f777b66a698047ba1c37812026b9714c5",
    "iso_url": "https://software-download.microsoft.com/download/pr/17763.737.190906-2324.rs5_release_svc_refresh_SERVER_EVAL_x64FRE_en-us_1.iso",
    "memory": "4096",
    "template": "windows-2019-standard",
    "unattended_file_path": "2019/Autounattend.xml",
    "virtio_win_iso": "~/virtio-win.iso",
    "vcenter": "",
    "vcenter_username": "",
    "vcenter_password": "",
    "vcenter_datacenter": "HomeLab",
    "vcenter_cluster": "LabCluster",
    "vcenter_datastore": "warehouseVMs",
    "vcenter_network": "/HomeLab/network/newServers_30"
  },
  "sensitive-variables": [
    "vcenter_password"
  ]
}